cond  item    poa
221   16      2
211   8       2
222   14      3
221   6		2
211   9		2
211   3		3
212   1		0
222   2		2
222   7		2
222   9		3
211   11		5
211   4		2
221   15		3
222   12		2
222   13		3
211   14		2
222   3		3
221   10		3
212   13		1
222   5		1
221   9		2
212   9		1
212   3		2
212   4		1
221   4		2
221   13		2
212   14		2
221   2		1
211   6		1
212   15		3
222   8		2
221   8		3
222   6		2
222   1		2
221   3		1
212   5		3
211   1		0
222   10		1
211   2		1
212   16		5
221   14		1
211   5		6
211   13		2
211   10		2
221   11		2
211   7		0
222   4		3
212   7		0
212   10		3
212   2		1
211   15		3
222   11		2
212   8		1
222   15		1
221   1		2
221   12		2
212   12		0
211   16		6
211   12		0
212   6		5
221   7		1
212   11		5
221   5		3
221   18		1
212   24		2
222   22		2
222   24		2
211   25		3
212   18		1
222   31		4
211   27		1
211   18		2
221   32		3
212   17		0
221   29		1
222   18		2
211   24		2
221   23		2
222   21		5
211   26		6
212   25		2
221   31		3
211   23		1
211   22		0
211   28		0
222   27		5
211   30		1
221   28		1
222   29		2
221   24		1
211   31		2
211   20		2
221   19		1
212   31		5
222   25		4
221   25		3
212   26		5
211   21		6
212   21		5
212   22		1
211   32		6
212   19		4
221   21		3
212   23		1
212   20		3
221   26		2
222   17		1
222   19		1
222   26		4
212   29		2
221   27		2
211   17		1
221   17		2
222   30		4
221   22		2
211   29		1
221   30		2
222   23		5
212   30		3
211   19		2
222   16		5
222   20		4
222   28		1
221   20		3
212   28		1
212   27		1
222   37		5
222   33		2
212   34		2
211   35		1
211   41		3
222   40		1
221   40		2
211   48		1
212   33		2
212   45		2
211   42		4
211   34		1
212   32		0
222   43		5
221   42		3
211   44		2
221   39		1
221   34		3
221   41		3
212   43		2
212   35		2
212   36		4
222   34		5
211   39		2
221   46		3
221   38		1
221   33		1
222   45		5
221   37		2
211   36		3
212   42		0
212   47		5
212   40		3
221   44		3
222   35		1
222   41		1
211   43		0
222   46		1
212   39		2
222   32		5
212   46		2
212   41		5
211   38		1
211   37		4
222   42		3
211   47		5
211   33		0
222   39		3
222   44		2
212   38		2
221   43		1
211   45		2
211   40		1
221   36		3
221   45		1
212   37		0
221   47		2
221   35		3
222   36		3
222   38		2
211   46		3
222   47		3
212   44		1
211   51		2
221   60		3
211   57		2
222   54		1
211   49		0
211   56		3
222   63		2
212   48		1
221   61		2
222   52		2
222   53		4
212   51		3
221   62		3
222   56		1
211   60		1
211   59		1
221   56		1
222   57		2
221   49		1
221   58		3
212   62		3
212   54		2
222   61		2
212   50		2
222   60		2
221   59		1
211   55		1
212   53		0
211   62		2
221   50		2
212   56		3
212   60		2
211   53		5
212   61		2
211   61		3
221   63		3
212   55		2
222   62		1
221   55		3
222   51		1
211   54		0
222   48		2
221   57		3
211   50		2
221   52		3
211   63		4
212   59		0
212   52		5
222   59		2
221   54		1
212   58		4
212   49		2
221   51		2
211   58		6
221   48		2
222   49		2
212   63		4
221   53		3
222   58		2
222   50		2
222   55		2
212   57		2
211   52		3